[
  {
    "id"  : 0,
    "name" : "Hospital Appointment",
    "imgName" : "hospital.png"
  },
  {
    "id"  : 1,
    "name" : "GP Appointment",
    "imgName" : "doctor.png"
  },
  {
    "id": 2,
    "name": "A&E Visit",
    "imgName": "aande.png"
  },
  {
    "id"  : 3,
    "name" : "Out Of Hours GP Visit",
    "imgName" : "outOfHours.png"
  },
  {
    "id"  : 4,
    "name" : "Community Pharmacy Visit",
    "imgName" : "pharmacy.png"
  }
]
